<svg width="18" height="18" viewBox="0 0 18 18" fill="none" xmlns="http://www.w3.org/2000/svg">
<circle cx="9" cy="9" r="8" stroke="#F5A21E" stroke-width="2"/>
<path d="M6.5 7.5L8.9199 9.9199C8.96243 9.96243 9.03262 9.95806 9.06955 9.91058L12.5 5.5" stroke="#F5A21E" stroke-width="2" stroke-linecap="round"/>
</svg>
